<?xml version="1.0" encoding="UTF-8"?>
<svg width="37px" height="46px" viewBox="0 0 37 46" version="1.1" xmlns="http://www.w3.org/2000/svg" xmlns:xlink="http://www.w3.org/1999/xlink">
    <!-- Generator: Sketch 55.1 (78136) - https://sketchapp.com -->
    <title>medieval-tower</title>
    <desc>Created with Sketch.</desc>
    <g id="Day-1" stroke="none" stroke-width="1" fill="none" fill-rule="evenodd">
        <g id="Day1-Landing2" transform="translate(-1153.000000, -609.000000)" fill="#0797E1" fill-rule="nonzero">
            <g id="medieval-tower" transform="translate(1153.000000, 609.000000)">
                <path d="M32.316,14.393 L36.74,7.313 C36.91,7.042 36.99,6.729 36.99,6.408 L36.99,1.684 C36.99,0.741 36.245,0 35.301,0 L30.807,0 C29.864,0 29.068,0.741 29.068,1.684 L29.068,4.22 C29.068,4.607 28.787,4.932 28.4,4.932 L23.868,4.932 C23.481,4.932 23.164,4.607 23.164,4.22 L23.164,1.684 C23.164,0.741 22.403,0 21.459,0 L15.975,0 C15.032,0 14.27,0.741 14.27,1.684 L14.27,4.22 C14.27,4.607 13.954,4.932 13.567,4.932 L9.035,4.932 C8.648,4.932 8.366,4.607 8.366,4.22 L8.366,1.684 C8.367,0.741 7.572,0 6.628,0 L2.134,0 C1.191,0 0.446,0.741 0.446,1.684 L0.446,6.408 C0.446,6.728 0.526,7.042 0.696,7.313 L5.119,14.393 C5.289,14.664 5.378,14.977 5.378,15.297 L5.378,34.604 C5.378,35.204 5.059,35.759 4.545,36.068 L1.267,38.039 C0.753,38.348 0.446,38.903 0.446,39.504 L0.446,43.75 C0.446,44.694 1.19,45.436 2.134,45.436 L35.301,45.436 C36.243,45.436 36.989,44.695 36.989,43.75 L36.989,39.504 C36.989,38.903 36.684,38.348 36.171,38.039 L32.884,36.069 C32.37,35.759 32.056,35.205 32.056,34.605 L32.056,15.297 C32.057,14.978 32.146,14.664 32.316,14.393 Z M23.163,24.426 C23.163,25.121 22.603,25.707 21.908,25.707 L15.527,25.707 C14.832,25.707 14.271,25.121 14.271,24.426 L14.271,18.943 C14.271,16.526 16.228,14.574 18.645,14.574 L18.79,14.574 C21.208,14.574 23.163,16.526 23.163,18.943 L23.163,24.426 Z" id="Shape"></path>
            </g>
        </g>
    </g>
</svg>